{
	"httpRequest": {
		"method": "GET",
		"path": "/api/community-nodes",
		"queryStringParameters": {
			"pagination[page]": ["14"],
			"pagination[pageSize]": ["25"]
		}
	},
	"httpResponse": {
		"statusCode": 200,
		"reasonPhrase": "OK",
		"headers": {
			"x-powered-by": ["n8n <n8n.io>"],
			"x-permitted-cross-domain-policies": ["none"],
			"x-frame-options": ["SAMEORIGIN"],
			"x-download-options": ["noopen"],
			"x-dns-prefetch-control": ["off"],
			"x-content-type-options": ["nosniff"],
			"x-cache": ["HIT"],
			"vary": ["Origin, Accept-Encoding"],
			"strict-transport-security": ["max-age=0; includeSubDomains"],
			"referrer-policy": ["no-referrer"],
			"content-security-policy": [
				"script-src 'self';frame-ancestors https://n8n.io https://*.n8n.io https://*.n8n.cloud;img-src 'self' data: blob: https://market-assets.strapi.io https://n8niostorageaccount.blob.core.windows.net;style-src 'self' 'unsafe-inline';connect-src 'self';font-src 'self';media-src 'self' data: blob:;default-src 'self';base-uri 'self';form-action 'self';object-src 'none';script-src-attr 'none'"
			],
			"access-control-expose-headers": ["WWW-Authenticate,Server-Authorization"],
			"access-control-allow-origin": [""],
			"access-control-allow-credentials": ["true"],
			"Server": ["cloudflare"],
			"Report-To": [
				"{\"group\":\"cf-nel\",\"max_age\":604800,\"endpoints\":[{\"url\":\"https://a.nel.cloudflare.com/report/v4?s=dFCZBwEDCjzyxp5nz4ikTe0P5T1y%2FyXe3UaGMXMcNs%2FqwBrew7RxFglR5Z1hsK%2B7t597nO0Bau8InTtPORa0JiYxnyxzWmlpS6LBRghdWg%3D%3D\"}]}"
			],
			"Nel": ["{\"report_to\":\"cf-nel\",\"success_fraction\":0.0,\"max_age\":604800}"],
			"Content-Type": ["application/json; charset=utf-8"]
		},
		"body": {
			"type": "JSON",
			"json": {
				"data": [
					{
						"id": 246,
						"attributes": {
							"nodeDescription": {
								"name": "n8n-nodes-preview-screenshotbase.screenshotBase",
								"codex": {},
								"group": ["transform"],
								"inputs": ["main"],
								"iconUrl": "https://n8niostorageaccount.blob.core.windows.net/n8nio-strapi-blobs-stage/assets/Screenshot_Base_4ee549e16f.svg",
								"outputs": ["main"],
								"version": 1,
								"defaults": {
									"name": "ScreenshotBase"
								},
								"subtitle": "={{$parameter[\"operation\"]}}",
								"properties": [
									{
										"name": "operation",
										"type": "options",
										"default": "getScreenshot",
										"options": [
											{
												"name": "Get Screenshot",
												"value": "getScreenshot",
												"action": "Fetch website screenshot",
												"routing": {
													"request": {
														"qs": {
															"url": "={{$parameter[\"url\"]}}"
														},
														"url": "/take",
														"method": "GET"
													}
												},
												"description": "Capture a screenshot from a given URL"
											}
										],
										"displayName": "Operation",
										"noDataExpression": true
									}
								],
								"description": "Capture screenshots via ScreenshotBase API",
								"displayName": "ScreenshotBase",
								"originalName": "n8n-nodes-screenshotbase.screenshotBase",
								"usableAsTool": true
							},
							"createdAt": "2025-10-22T10:20:19.017Z",
							"updatedAt": "2026-01-30T10:11:33.213Z",
							"authorGithubUrl": "https://github.com/everapihq/",
							"authorName": "everapi-user",
							"checksum": "sha512-iug9154UbSYhwHsA3kEYfhmebOEdhARpEMAF3CJ+X3w1xo8t23QIHqud0azCl3K/NUFEDuq1YFxZjhK1u5nTrQ==",
							"description": "Capture screenshots via ScreenshotBase API",
							"displayName": "ScreenshotBase",
							"name": "n8n-nodes-screenshotbase",
							"numberOfStars": 0,
							"numberOfDownloads": 163,
							"packageName": "n8n-nodes-screenshotbase",
							"npmVersion": "0.1.3",
							"isOfficialNode": true,
							"isPublished": true,
							"companyName": "Everapi",
							"nodeVersions": [
								{
									"checksum": "sha512-eUyssG0MqrlLif7l8n3hP4Ec/4vodLMhNwshSMQuCXwDLFLoukt4L+Q6XoQKZvliP5pQbyvI1SVteO5iAfbwtA==",
									"npmVersion": "0.1.2"
								},
								{
									"checksum": "sha512-iug9154UbSYhwHsA3kEYfhmebOEdhARpEMAF3CJ+X3w1xo8t23QIHqud0azCl3K/NUFEDuq1YFxZjhK1u5nTrQ==",
									"npmVersion": "0.1.3"
								}
							]
						}
					},
					{
						"id": 201,
						"attributes": {
							"nodeDescription": {
								"name": "n8n-nodes-preview-omnara.omnara",
								"codex": {},
								"group": ["transform"],
								"inputs": ["main"],
								"iconUrl": "https://n8niostorageaccount.blob.core.windows.net/n8nio-strapi-blobs-stage/assets/Omnara_86f2845b05.png",
								"outputs": ["main"],
								"version": 1,
								"defaults": {
									"name": "Omnara"
								},
								"subtitle": "={{$parameter[\"operation\"] + \": \" + $parameter[\"resource\"]}}",
								"properties": [
									{
										"name": "resource",
										"type": "options",
										"default": "message",
										"options": [
											{
												"name": "Message",
												"value": "message",
												"description": "Send messages to Omnara agents"
											},
											{
												"name": "Session",
												"value": "session",
												"description": "Manage agent sessions"
											}
										],
										"displayName": "Resource",
										"noDataExpression": true
									},
									{
										"name": "operation",
										"type": "options",
										"default": "send",
										"options": [
											{
												"name": "Send",
												"value": "send",
												"action": "Send message",
												"description": "Send a non-blocking message to the user (for status updates, progress reports, or sharing your thought process). Use this when you want to inform the user but do not need their response to continue"
											},
											{
												"name": "Send and Wait",
												"value": "sendAndWait",
												"action": "Send message and wait for response",
												"description": "Send a message and wait for the user's response (for questions, approvals, or conversations). Use this when you need the user's input to proceed with your task"
											}
										],
										"displayName": "Operation",
										"displayOptions": {
											"show": {
												"resource": ["message"]
											}
										},
										"noDataExpression": true
									},
									{
										"name": "operation",
										"type": "options",
										"default": "end",
										"options": [
											{
												"name": "End",
												"value": "end",
												"action": "End agent session",
												"description": "End an agent session"
											}
										],
										"displayName": "Operation",
										"displayOptions": {
											"show": {
												"resource": ["session"]
											}
										},
										"noDataExpression": true
									}
								],
								"description": "Send messages to users via Omnara - a web and mobile platform for human-AI communication",
								"displayName": "Omnara",
								"originalName": "n8n-nodes-omnara.omnara",
								"usableAsTool": true
							},
							"createdAt": "2025-09-23T16:42:04.639Z",
							"updatedAt": "2026-01-30T10:11:33.578Z",
							"authorGithubUrl": "https://github.com/omnara-ai/omnara.git",
							"authorName": "ksarangmath",
							"checksum": "sha512-5FAYSzhnJoq23BlvwjZeVjq/FpkCcQC/Xoa0NKufLIaW6uwm2WhwfH9CRH/JJ+rnX9MdcDdgChwQ/X5H+JiO1w==",
							"description": "Send messages to users via Omnara - a web and mobile platform for human-AI communication",
							"displayName": "Omnara",
							"name": "n8n-nodes-omnara",
							"numberOfStars": 2539,
							"numberOfDownloads": 0,
							"packageName": "n8n-nodes-omnara",
							"npmVersion": "0.1.7",
							"isOfficialNode": true,
							"isPublished": true,
							"companyName": "Omnara",
							"nodeVersions": [
								{
									"checksum": "sha512-7tf8NIX5Nudifs4WBbblxs5rC2q6YAagIXVh/4JwkuHarsWGjfNg/sXfN9BifXVf5ZneQx8f2kK1zfjvro4mnQ==",
									"npmVersion": "0.1.6"
								},
								{
									"checksum": "sha512-5FAYSzhnJoq23BlvwjZeVjq/FpkCcQC/Xoa0NKufLIaW6uwm2WhwfH9CRH/JJ+rnX9MdcDdgChwQ/X5H+JiO1w==",
									"npmVersion": "0.1.7"
								}
							]
						}
					},
					{
						"id": 128,
						"attributes": {
							"nodeDescription": {
								"name": "n8n-nodes-preview-seo-content-machine.seoContentMachine",
								"codex": {},
								"group": ["transform"],
								"inputs": ["main"],
								"iconUrl": "https://n8niostorageaccount.blob.core.windows.net/n8nio-strapi-blobs-stage/assets/SEO_Content_Machine_e99661cc16.svg",
								"outputs": ["main"],
								"version": 1,
								"defaults": {
									"name": "SEO Content Machine"
								},
								"subtitle": "={{ $parameter[\"operation\"] + \": \" + $parameter[\"resource\"] }}",
								"properties": [
									{
										"name": "resource",
										"type": "options",
										"default": "task",
										"options": [
											{
												"name": "Task",
												"value": "task"
											},
											{
												"name": "Other",
												"value": "other"
											}
										],
										"displayName": "Resource",
										"noDataExpression": true
									},
									{
										"name": "operation",
										"type": "options",
										"default": "start",
										"options": [
											{
												"name": "Abort",
												"value": "abort",
												"action": "Abort a task",
												"description": "Abort a running task"
											},
											{
												"name": "Content",
												"value": "content",
												"action": "Get content from task",
												"description": "Gets content created by a task"
											},
											{
												"name": "Create",
												"value": "create",
												"action": "Create a task",
												"description": "Create a new task"
											},
											{
												"name": "Data",
												"value": "data",
												"action": "Get task data",
												"description": "Get task data"
											},
											{
												"name": "Delete",
												"value": "delete",
												"action": "Delete a task",
												"description": "Delete a task"
											},
											{
												"name": "Duplicate",
												"value": "duplicate",
												"action": "Duplicate a task",
												"description": "Duplicate a task"
											},
											{
												"name": "Find",
												"value": "find",
												"action": "Find tasks",
												"description": "Find tasks"
											},
											{
												"name": "Start",
												"value": "start",
												"action": "Start a task",
												"description": "Start a task"
											},
											{
												"name": "Status",
												"value": "status",
												"action": "Get task status",
												"description": "Get task status"
											},
											{
												"name": "Update",
												"value": "update",
												"action": "Update task data",
												"description": "Update task data"
											}
										],
										"displayName": "Operation",
										"displayOptions": {
											"show": {
												"resource": ["task"]
											}
										},
										"noDataExpression": true
									},
									{
										"name": "operation",
										"type": "options",
										"default": "spin",
										"options": [
											{
												"name": "About Me",
												"value": "about",
												"action": "Generate about me",
												"description": "Generate about me"
											},
											{
												"name": "Spin",
												"value": "spin",
												"action": "Spin text",
												"description": "Spin/Rewrite text"
											}
										],
										"displayName": "Operation",
										"displayOptions": {
											"show": {
												"resource": ["other"]
											}
										},
										"noDataExpression": true
									}
								],
								"description": "SEO Content Machine node",
								"displayName": "SEO Content Machine",
								"originalName": "n8n-nodes-seo-content-machine.seoContentMachine",
								"usableAsTool": true
							},
							"createdAt": "2025-07-25T13:43:38.042Z",
							"updatedAt": "2026-01-30T10:11:33.282Z",
							"authorGithubUrl": "https://github.com/gitTerebi/",
							"authorName": "seocontentmachine",
							"checksum": "sha512-A/yq3sEanssV4gZVJrPvOKa8R6NPdYZfhe7s7BZK48JdpB15ioBj35eafG12otNfO27yGl9qjE3mreggcSZ+Nw==",
							"description": "SEO Content Machine node",
							"displayName": "SEO Content Machine",
							"name": "n8n-nodes-seo-content-machine",
							"numberOfStars": 2,
							"numberOfDownloads": 430,
							"packageName": "n8n-nodes-seo-content-machine",
							"npmVersion": "0.1.20",
							"isOfficialNode": true,
							"isPublished": true,
							"companyName": "SEO Content Machine",
							"nodeVersions": [
								{
									"checksum": "sha512-A/yq3sEanssV4gZVJrPvOKa8R6NPdYZfhe7s7BZK48JdpB15ioBj35eafG12otNfO27yGl9qjE3mreggcSZ+Nw==",
									"npmVersion": "0.1.20"
								}
							]
						}
					},
					{
						"id": 315,
						"attributes": {
							"nodeDescription": {
								"name": "n8n-nodes-preview-presenton.presenton",
								"codex": {},
								"group": ["transform"],
								"inputs": ["main"],
								"iconUrl": "https://n8niostorageaccount.blob.core.windows.net/n8nio-strapi-blobs-stage/assets/Presenton_4b2a346a9e.svg",
								"outputs": ["main"],
								"version": 1,
								"defaults": {
									"name": "presenton"
								},
								"subtitle": "",
								"properties": [
									{
										"name": "operation",
										"type": "options",
										"default": "generateAsync",
										"options": [
											{
												"name": "Generate Presentation (Async)",
												"value": "generateAsync",
												"action": "Initiate presentation generation",
												"description": "Initiate presentation generation asynchronously"
											},
											{
												"name": "Check Presentation Status",
												"value": "checkStatus",
												"action": "Poll or check until presentation is done",
												"description": "Poll or check until presentation is done"
											},
											{
												"name": "Upload File",
												"value": "uploadFile",
												"action": "Upload a file to presenton to reference later",
												"description": "Upload a file to Presenton to reference later"
											}
										],
										"required": true,
										"description": "What you want to do with Presenton",
										"displayName": "Operation",
										"noDataExpression": true
									}
								],
								"description": "Interact with presenton API (async generation + status checking)",
								"displayName": "Presenton",
								"originalName": "n8n-nodes-presenton.presenton"
							},
							"createdAt": "2025-12-01T09:20:27.030Z",
							"updatedAt": "2026-01-28T12:57:16.394Z",
							"authorGithubUrl": "https://github.com/shivarajbadu/",
							"authorName": "badu5",
							"checksum": "sha512-YJ9rKrD4FyMzYfux4axeypEDS3Zo36KVvEX68VKPN49lODl2aaOMuIuuhWjMOXOaVHRTICtV/ZNLKpoFHKM0mg==",
							"description": "Interact with presenton API (async generation + status checking)",
							"displayName": "Presenton",
							"name": "n8n-nodes-presenton",
							"numberOfStars": 0,
							"numberOfDownloads": 34,
							"packageName": "n8n-nodes-presenton",
							"npmVersion": "1.2.7",
							"isOfficialNode": true,
							"isPublished": true,
							"companyName": "Presenton",
							"nodeVersions": [
								{
									"checksum": "sha512-79zgSlbzoMrk+qbANPkV7lbGAJzmswwOXarZKJgLDVFzRv0NafyUj5se06YbiMt6LFFJW8aOlzaKGCyCKTCpCw==",
									"npmVersion": "1.2.6"
								},
								{
									"checksum": "sha512-YJ9rKrD4FyMzYfux4axeypEDS3Zo36KVvEX68VKPN49lODl2aaOMuIuuhWjMOXOaVHRTICtV/ZNLKpoFHKM0mg==",
									"npmVersion": "1.2.7"
								}
							]
						}
					},
					{
						"id": 266,
						"attributes": {
							"nodeDescription": {
								"name": "@infobip/n8n-nodes-preview-infobip-api.infobipApi",
								"codex": {},
								"group": ["transform"],
								"inputs": ["main"],
								"iconUrl": "https://n8niostorageaccount.blob.core.windows.net/n8nio-strapi-blobs-stage/assets/Infobip_Api_2bfcdb960d.svg",
								"outputs": ["main"],
								"version": 1,
								"defaults": {
									"name": "InfobipApi"
								},
								"subtitle": "={{$parameter[\"operation\"]}}",
								"properties": [
									{
										"name": "operation",
										"type": "options",
										"default": "sendSms",
										"options": [
											{
												"name": "Send an SMS",
												"value": "sendSms",
												"action": "Send an SMS"
											},
											{
												"name": "View SMS Delivery Report",
												"value": "smsDeliveryReport",
												"action": "View sms delivery report"
											}
										],
										"displayName": "Operation",
										"noDataExpression": true
									}
								],
								"description": "Interact with Infobip SMS API",
								"displayName": "InfobipApi",
								"originalName": "@infobip/n8n-nodes-infobip-api.infobipApi",
								"usableAsTool": true
							},
							"createdAt": "2025-10-27T14:20:49.051Z",
							"updatedAt": "2026-01-30T10:11:33.581Z",
							"authorGithubUrl": "https://github.com/infobip/n8n-nodes-infobip-api.git",
							"authorName": "infobip.mobile",
							"checksum": "sha512-CbG0uPGRbyXqE7bc9EUEhWtGW00/1PCUnEmmP0ujSbciyDttAAvNWUcorbilDLc+dTaWk68lydjG6yEw30itfg==",
							"description": "Interact with Infobip SMS API",
							"displayName": "InfobipApi",
							"name": "@infobip/n8n-nodes-infobip-api",
							"numberOfStars": 0,
							"numberOfDownloads": 164,
							"packageName": "@infobip/n8n-nodes-infobip-api",
							"npmVersion": "0.2.1",
							"isOfficialNode": true,
							"isPublished": true,
							"companyName": "Infobip",
							"nodeVersions": [
								{
									"checksum": "sha512-CbG0uPGRbyXqE7bc9EUEhWtGW00/1PCUnEmmP0ujSbciyDttAAvNWUcorbilDLc+dTaWk68lydjG6yEw30itfg==",
									"npmVersion": "0.2.1"
								}
							]
						}
					},
					{
						"id": 291,
						"attributes": {
							"nodeDescription": {
								"name": "n8n-nodes-preview-tomba.tomba",
								"codex": {},
								"group": ["output"],
								"inputs": ["main"],
								"iconUrl": "https://n8niostorageaccount.blob.core.windows.net/n8nio-strapi-blobs-stage/assets/Tomba_f50a307645.svg",
								"outputs": ["main"],
								"version": 1,
								"defaults": {
									"name": "Tomba"
								},
								"subtitle": "={{$parameter[\"operation\"]}}",
								"properties": [
									{
										"name": "operation",
										"type": "options",
										"default": "domainSearch",
										"options": [
											{
												"name": "Author Finder",
												"value": "authorFinder",
												"action": "Generate or retrieve the most likely email address from a blog post url",
												"description": "Generate or retrieve the most likely email address from a blog post URL"
											},
											{
												"name": "Autocomplete",
												"value": "Autocomplete",
												"action": "Find company names and retrieve logo and domain information",
												"description": "Find company names and retrieve logo and domain information"
											},
											{
												"name": "Domain Search",
												"value": "domainSearch",
												"action": "Get every email address found on the internet using a given domain name with sources",
												"description": "Get every email address found on the internet using a given domain name, with sources"
											},
											{
												"name": "Domain Status",
												"value": "DomainStatus",
												"action": "Find domain status if is webmail or disposable",
												"description": "Find domain status if is webmail or disposable"
											},
											{
												"name": "Email Count",
												"value": "EmailCount",
												"action": "Find total email addresses we have for one domain",
												"description": "Find total email addresses we have for one domain"
											},
											{
												"name": "Email Enrichment",
												"value": "emailEnrichment",
												"action": "Look up person and company data based on an email",
												"description": "Look up person and company data based on an email"
											},
											{
												"name": "Email Finder",
												"value": "emailFinder",
												"action": "Generate or retrieve the most likely email address from a domain name a first name and a last name",
												"description": "Generate or retrieve the most likely email address from a domain name, a first name and a last name"
											},
											{
												"name": "Email Format",
												"value": "emailFormat",
												"action": "Retrieve the email format patterns used by a specific domain",
												"description": "Retrieve the email format patterns used by a specific domain"
											},
											{
												"name": "Email Sources",
												"value": "emailSources",
												"action": "Find email address source somewhere on the web",
												"description": "Find email address source somewhere on the web"
											},
											{
												"name": "Email Verifier",
												"value": "emailVerifier",
												"action": "Verify the deliverability of an email address",
												"description": "Verify the deliverability of an email address"
											},
											{
												"name": "LinkedIn Finder",
												"value": "linkedinFinder",
												"action": "Generate or retrieve the most likely email address from a linkedin url",
												"description": "Generate or retrieve the most likely email address from a LinkedIn URL"
											},
											{
												"name": "Location",
												"value": "location",
												"action": "Get employees location based on the domain name",
												"description": "Get employees location based on the domain name"
											},
											{
												"name": "Phone Finder",
												"value": "phoneFinder",
												"action": "Search for phone numbers based on an email domain or linkedin url",
												"description": "Search for phone numbers based on an email, domain, or LinkedIn URL"
											},
											{
												"name": "Phone Validator",
												"value": "phoneValidator",
												"action": "Validate a phone number and retrieve its associated information",
												"description": "Validate a phone number and retrieve its associated information"
											},
											{
												"name": "Similar",
												"value": "similar",
												"action": "Retrieve similar domains based on a specific domain",
												"description": "Retrieve similar domains based on a specific domain"
											},
											{
												"name": "Technology",
												"value": "technology",
												"action": "Retrieve the technologies used by a specific domain",
												"description": "Retrieve the technologies used by a specific domain"
											}
										],
										"description": "Operation to consume",
										"displayName": "Operation",
										"noDataExpression": true
									}
								],
								"description": "Consume Tomba API",
								"displayName": "Tomba",
								"originalName": "n8n-nodes-tomba.tomba"
							},
							"createdAt": "2025-11-12T12:20:33.055Z",
							"updatedAt": "2026-01-28T12:58:00.672Z",
							"authorGithubUrl": "https://github.com/tomba-io/",
							"authorName": "mohamed_ben",
							"checksum": "sha512-qjHN5Vhc5n9yXc0Yepf2aFTUDDWsNm/XSn9oed0TLJP1zLodIhycthuvesLN4eIJ42HmIiqGlRVkkocBZa6rpA==",
							"description": "Consume Tomba API",
							"displayName": "Tomba",
							"name": "n8n-nodes-tomba",
							"numberOfStars": 3,
							"numberOfDownloads": 4,
							"packageName": "n8n-nodes-tomba",
							"npmVersion": "0.1.4",
							"isOfficialNode": true,
							"isPublished": true,
							"companyName": "Tomba.io",
							"nodeVersions": [
								{
									"checksum": "sha512-qjHN5Vhc5n9yXc0Yepf2aFTUDDWsNm/XSn9oed0TLJP1zLodIhycthuvesLN4eIJ42HmIiqGlRVkkocBZa6rpA==",
									"npmVersion": "0.1.4"
								}
							]
						}
					}
				],
				"meta": {
					"pagination": {
						"page": 14,
						"pageSize": 25,
						"pageCount": 14,
						"total": 331
					}
				}
			}
		}
	},
	"id": "1770043379539-api-staging.n8n.io-GET-_api_community_nodes-dbca5276.json",
	"priority": 0,
	"timeToLive": {
		"unlimited": true
	},
	"times": {
		"unlimited": true
	}
}
